Import MicrobiotaProcess object for PARAFAC modelling — importMicrobiotaProcess • parafac4microbiome
…
#>  8 F3D146
#>  9 F3D147
#> 10 F3D148
#> 11 F3D149
#> 12 F3D150
#> 13 F3D2  
#> 14 F3D3  
#> 15 F3D5  
#> 16 F3D6  
#> 17 F3D7  
#> 18 F3D8  
#> 19 F3D9  
#> 
#> $mode2
#> # A tibble: 218 × 8
#>    OTU     Kingdom     Phylum            Class        Order Family Genus Species
#>    <chr>   <chr>       <chr>             <chr>        <chr> <chr>  <chr> <chr>  
#>  1 OTU_67  k__Bacteria p__Actinobacteria c__Actinoba… o__B… f__Bi… g__B… s__un_…
#>  2 OTU_231 k__Bacteria p__Actinobacteria c__Coriobac… o__C… f__At… g__O… s__un_…
#>  3 OTU_188 k__Bacteria p__Actinobacteria c__Coriobac… o__C… f__Eg… g__E… s__mur…
#>  4 OTU_150 k__Bacteria p__Actinobacteria c__Coriobac… o__C… f__Eg… g__E… s__un_…
#>  5 OTU_207 k__Bacteria p__Actinobacteria c__Coriobac… o__C… f__Eg… g__E… s__un_…
#>  6 OTU_5   k__Bacteria p__Bacteroidetes  c__Bacteroi… o__B… f__Ba… g__B… s__un_…
#>  7 OTU_1   k__Bacteria p__Bacteroidetes  c__Bacteroi… o__B… f__Mu… g__u… s__un_…
#>  8 OTU_2   k__Bacteria p__Bacteroidetes  c__Bacteroi… o__B… f__Mu… g__u… s__un_…
#>  9 OTU_3   k__Bacteria p__Bacteroidetes  c__Bacteroi… o__B… f__Mu… g__u… s__un_…
#> 10 OTU_4   k__Bacteria p__Bacteroidetes  c__Bacteroi… o__B… f__Mu… g__u… s__un_…
#> # ℹ 208 more rows
…
